trial,testing,parameters,initial_deadline,final_deadline,net_reward,actions,success
1,False,"{'a': 0.5, 'e': 0.95}",25,0,-168.84611980469433,"{0: 14, 1: 3, 2: 5, 3: 0, 4: 3}",0
2,False,"{'a': 0.5, 'e': 0.8999999999999999}",20,0,-68.3824907490899,"{0: 11, 1: 4, 2: 4, 3: 1, 4: 0}",0
3,False,"{'a': 0.5, 'e': 0.8499999999999999}",20,0,-128.94508927287023,"{0: 11, 1: 1, 2: 6, 3: 0, 4: 2}",0
4,False,"{'a': 0.5, 'e': 0.7999999999999998}",25,0,-117.8811307852754,"{0: 14, 1: 4, 2: 5, 3: 1, 4: 1}",0
5,False,"{'a': 0.5, 'e': 0.7499999999999998}",30,0,-167.97435036265483,"{0: 16, 1: 4, 2: 7, 3: 1, 4: 2}",0
6,False,"{'a': 0.5, 'e': 0.6999999999999997}",20,10,-37.92622481034899,"{0: 6, 1: 0, 2: 3, 3: 1, 4: 0}",1
7,False,"{'a': 0.5, 'e': 0.6499999999999997}",35,0,-202.2088594710489,"{0: 21, 1: 5, 2: 4, 3: 2, 4: 3}",0
8,False,"{'a': 0.5, 'e': 0.5999999999999996}",20,0,-84.21723268742024,"{0: 16, 1: 1, 2: 1, 3: 0, 4: 2}",0
9,False,"{'a': 0.5, 'e': 0.5499999999999996}",20,10,-18.769256110508238,"{0: 7, 1: 0, 2: 3, 3: 0, 4: 0}",1
10,False,"{'a': 0.5, 'e': 0.4999999999999996}",20,8,0.9670919431265013,"{0: 10, 1: 0, 2: 2, 3: 0, 4: 0}",1
11,False,"{'a': 0.5, 'e': 0.4499999999999996}",30,0,-189.4285762464147,"{0: 22, 1: 0, 2: 2, 3: 2, 4: 4}",0
12,False,"{'a': 0.5, 'e': 0.39999999999999963}",20,0,-39.189301815535146,"{0: 16, 1: 2, 2: 1, 3: 0, 4: 1}",0
13,False,"{'a': 0.5, 'e': 0.34999999999999964}",20,3,-37.361677599921634,"{0: 14, 1: 0, 2: 2, 3: 0, 4: 1}",1
14,False,"{'a': 0.5, 'e': 0.29999999999999966}",25,14,-30.66264876720917,"{0: 9, 1: 0, 2: 1, 3: 0, 4: 1}",1
15,False,"{'a': 0.5, 'e': 0.24999999999999967}",25,0,-99.81151390278605,"{0: 18, 1: 1, 2: 4, 3: 0, 4: 2}",0
16,False,"{'a': 0.5, 'e': 0.19999999999999968}",25,0,-19.84255164527704,"{0: 23, 1: 1, 2: 0, 3: 0, 4: 1}",0
17,False,"{'a': 0.5, 'e': 0.1499999999999997}",25,14,-46.374486737944046,"{0: 9, 1: 0, 2: 0, 3: 1, 4: 1}",1
18,False,"{'a': 0.5, 'e': 0.09999999999999969}",20,5,-44.8359609614712,"{0: 11, 1: 1, 2: 2, 3: 0, 4: 1}",1
19,False,"{'a': 0.5, 'e': 0.049999999999999684}",25,0,-63.813496525461616,"{0: 21, 1: 1, 2: 1, 3: 0, 4: 2}",0
20,False,"{'a': 0.5, 'e': -3.191891195797325e-16}",25,0,-36.570337697751725,"{0: 22, 1: 0, 2: 1, 3: 1, 4: 1}",0
1,True,"{'a': 0, 'e': 0}",30,0,15.208694101531282,"{0: 27, 1: 2, 2: 1, 3: 0, 4: 0}",0
2,True,"{'a': 0, 'e': 0}",30,0,-33.796316070876,"{0: 25, 1: 0, 2: 3, 3: 2, 4: 0}",0
3,True,"{'a': 0, 'e': 0}",25,18,13.751428777096292,"{0: 7, 1: 0, 2: 0, 3: 0, 4: 0}",1
4,True,"{'a': 0, 'e': 0}",30,3,-0.7966653630408846,"{0: 26, 1: 0, 2: 0, 3: 0, 4: 1}",1
5,True,"{'a': 0, 'e': 0}",20,15,2.198433055809985,"{0: 4, 1: 1, 2: 0, 3: 0, 4: 0}",1
6,True,"{'a': 0, 'e': 0}",20,0,-12.484665913829014,"{0: 19, 1: 0, 2: 0, 3: 0, 4: 1}",0
7,True,"{'a': 0, 'e': 0}",30,0,-74.82283632485957,"{0: 26, 1: 1, 2: 0, 3: 1, 4: 2}",0
8,True,"{'a': 0, 'e': 0}",30,18,20.84876468722607,"{0: 12, 1: 0, 2: 0, 3: 0, 4: 0}",1
9,True,"{'a': 0, 'e': 0}",20,16,6.886191099243476,"{0: 4, 1: 0, 2: 0, 3: 0, 4: 0}",1
10,True,"{'a': 0, 'e': 0}",20,0,-50.252985419522744,"{0: 17, 1: 0, 2: 1, 3: 1, 4: 1}",0
